…
``` r
sat_cor %>% 
  filter(!variable %in% c("sat_score",
                          "sat_writing_avg_score",
                          "sat_critical_reading_avg_score",
                          "sat_math_avg_score"),
         sat_score >= 0.4 | sat_score <= -0.4) %>% 
  arrange(desc(sat_score))
```

    ## # A tibble: 39 x 2
    ##    variable                           sat_score
    ##    <chr>                                  <dbl>
    ##  1 grade1                                 1    
    ##  2 grade2                                 1    
    ##  3 grade3                                 1    
    ##  4 grade4                                 1    
    ##  5 grade5                                 1    
    ##  6 k                                      0.985
    ##  7 mean_scale_score                       0.791
    ##  8 advanced_regents_percent_of_cohort     0.782
    ##  9 level_3_4_percent                      0.771
    ## 10 advanced_regents_percent_of_grads      0.743
    ## # … with 29 more rows
…
