NYC SAT Scores
…
## $ap_results
## # A tibble: 258 x 5
##    DBN    SchoolName       `AP Test Takers` `Total Exams Ta `Number of Exams w
##    <chr>  <chr>                       <dbl>            <dbl>               <dbl>
##  1 01M448 UNIVERSITY NEIG               39               49                  10
##  2 01M450 EAST SIDE COMMU               19               21                  NA
##  3 01M515 LOWER EASTSIDE                24               26                  24
##  4 01M539 NEW EXPLORATION              255              377                 191
##  5 02M296 High School of                NA               NA                  NA
##  6 02M298 Pace High School               21               21                  NA
##  7 02M300 Urban Assembly                99              117                  10
##  8 02M303 Facing History                42               44                  NA
##  9 02M305 Urban Assembly                25               37                  15
## 10 02M308 Lower Manhattan               NA               NA                  NA
## #  with 248 more rows
## 
## $class_size
## # A tibble: 27,611 x 16
##      CSD BOROUGH `SCHOOL CODE` `SCHOOL NAME`             GRADE `PROGRAM TYPE`
##    <dbl> <chr>   <chr>         <chr>                     <chr> <chr>         
##  1     1 M       M015          P.S. 015 Roberto Clemente 0K    GEN ED        
##  2     1 M       M015          P.S. 015 Roberto Clemente 0K    CTT           
##  3     1 M       M015          P.S. 015 Roberto Clemente 01    GEN ED        
##  4     1 M       M015          P.S. 015 Roberto Clemente 01    CTT           
##  5     1 M       M015          P.S. 015 Roberto Clemente 02    GEN ED        
##  6     1 M       M015          P.S. 015 Roberto Clemente 02    CTT           
##  7     1 M       M015          P.S. 015 Roberto Clemente 03    GEN ED        
##  8     1 M       M015          P.S. 015 Roberto Clemente 03    CTT           
##  9     1 M       M015          P.S. 015 Roberto Clemente 04    GEN ED        
## 10     1 M       M015          P.S. 015 Roberto Clemente 05    GEN ED        
## #  with 27,601 more rows, and 10 more variables:
## #   CORE SUBJECT (MS CORE and 9-12 ONLY) <chr>,
## #   CORE COURSE (MS CORE and 9-12 ONLY) <chr>,
## #   SERVICE CATEGORY(K-9* ONLY) <chr>, NUMBER OF STUDENTS / SEATS FILLED <dbl>,
## #   NUMBER OF SECTIONS <dbl>, AVERAGE CLASS SIZE <dbl>,
## #   SIZE OF SMALLEST CLASS <dbl>, SIZE OF LARGEST CLASS <dbl>,
## #   DATA SOURCE <chr>, SCHOOLWIDE PUPIL-TEACHER RATIO <dbl>
## 
## $demographics
## # A tibble: 10,075 x 38
##    DBN    Name    schoolyear fl_percent frl_percent total_enrollment  prek     k
##    <chr>  <chr>        <dbl>      <dbl>       <dbl>            <dbl> <dbl> <dbl>
##  1 01M015 P.S. 0   20052006       89.4        NA                281    15    36
##  2 01M015 P.S. 0   20062007       89.4        NA                243    15    29
##  3 01M015 P.S. 0   20072008       89.4        NA                261    18    43
##  4 01M015 P.S. 0   20082009       89.4        NA                252    17    37
##  5 01M015 P.S. 0   20092010       NA          96.5              208    16    40
##  6 01M015 P.S. 0   20102011       NA          96.5              203    13    37
##  7 01M015 P.S. 0   20112012       NA          89.4              189    13    31
##  8 01M019 P.S. 0   20052006       61.5        NA                402    15    43
##  9 01M019 P.S. 0   20062007       61.5        NA                312    13    37
## 10 01M019 P.S. 0   20072008       61.5        NA                338    28    48
## #  with 10,065 more rows, and 30 more variables: grade1 <dbl>, grade2 <dbl>,
## #   grade3 <dbl>, grade4 <dbl>, grade5 <dbl>, grade6 <dbl>, grade7 <dbl>,
## #   grade8 <dbl>, grade9 <dbl>, grade10 <dbl>, grade11 <dbl>, grade12 <dbl>,
## #   ell_num <dbl>, ell_percent <dbl>, sped_num <dbl>, sped_percent <dbl>,
## #   ctt_num <dbl>, selfcontained_num <dbl>, asian_num <dbl>, asian_per <dbl>,
## #   black_num <dbl>, black_per <dbl>, hispanic_num <dbl>, hispanic_per <dbl>,
## #   white_num <dbl>, white_per <dbl>, male_num <dbl>, male_per <dbl>,
## #   female_num <dbl>, female_per <dbl>
## 
## $district_maps
## # A tibble: 33 x 4
##    the_geom                                     SchoolDist Shape_Area Shape_Leng
##    <chr>                                             <dbl>      <dbl>      <dbl>
##  1 MULTIPOLYGON (((-73.97177411031375 40.72582          1  35160328.     28641.
##  2 MULTIPOLYGON (((-73.86789798628837 40.90294         10 282540990.     94957.
##  3 MULTIPOLYGON (((-73.78833349900695 40.83466         11 393227696.    305036.
##  4 MULTIPOLYGON (((-73.93311862859143 40.69579         16  46763620.     35849.
##  5 MULTIPOLYGON (((-73.88284445574813 40.84781         12  69097946.     48578.
##  6 MULTIPOLYGON (((-73.9790608491185 40.705946         13 104870780.     86635.
##  7 MULTIPOLYGON (((-73.95439555417087 40.73911         14 150295578.     95608.
##  8 MULTIPOLYGON (((-73.98633135042395 40.69105         15 196154166.    153454.
##  9 MULTIPOLYGON (((-73.92640556921116 40.87762          6  96341936.     70446.
## 10 MULTIPOLYGON (((-73.91551523934298 40.82470          7  92263167.     65301.
## #  with 23 more rows
## 
## $grad_outcomes
## # A tibble: 25,096 x 23
##    Demographic  DBN    `School Name`      Cohort `Total Cohort` `Total Grads - 
##    <chr>        <chr>  <chr>              <chr>           <dbl> <chr>           
##  1 Total Cohort 01M292 HENRY STREET SCHO 2003                5 s               
##  2 Total Cohort 01M292 HENRY STREET SCHO 2004               55 37              
##  3 Total Cohort 01M292 HENRY STREET SCHO 2005               64 43              
##  4 Total Cohort 01M292 HENRY STREET SCHO 2006               78 43              
##  5 Total Cohort 01M292 HENRY STREET SCHO 2006              78 44              
##  6 Total Cohort 01M448 UNIVERSITY NEIGHB 2001               64 46              
##  7 Total Cohort 01M448 UNIVERSITY NEIGHB 2002               52 33              
##  8 Total Cohort 01M448 UNIVERSITY NEIGHB 2003               87 67              
##  9 Total Cohort 01M448 UNIVERSITY NEIGHB 2004              112 75              
## 10 Total Cohort 01M448 UNIVERSITY NEIGHB 2005              121 64              
## #  with 25,086 more rows, and 17 more variables:
## #   Total Grads - % of cohort <dbl>, Total Regents - n <chr>,
## #   Total Regents - % of cohort <dbl>, Total Regents - % of grads <dbl>,
## #   Advanced Regents - n <chr>, Advanced Regents - % of cohort <dbl>,
## #   Advanced Regents - % of grads <dbl>, Regents w/o Advanced - n <chr>,
## #   Regents w/o Advanced - % of cohort <dbl>,
## #   Regents w/o Advanced - % of grads <dbl>, Local - n <chr>,
## #   Local - % of cohort <dbl>, Local - % of grads <dbl>,
## #   Still Enrolled - n <chr>, Still Enrolled - % of cohort <dbl>,
## #   Dropped Out - n <chr>, Dropped Out - % of cohort <dbl>
## 
## $math_results
## # A tibble: 28,478 x 16
##    DBN    Grade  Year Category     `Number Tested` `Mean Scale Scor `Level 1 #`
##    <chr>  <chr> <dbl> <chr>                  <dbl>             <dbl>       <dbl>
##  1 01M015 3      2006 All Students              39               667           2
##  2 01M015 3      2007 All Students              31               672           2
##  3 01M015 3      2008 All Students              37               668           0
##  4 01M015 3      2009 All Students              33               668           0
##  5 01M015 3      2010 All Students              26               677           6
##  6 01M015 3      2011 All Students              28               671          10
##  7 01M015 4      2006 All Students              49               629          20
##  8 01M015 4      2007 All Students              40               659           4
##  9 01M015 4      2008 All Students              41               655           5
## 10 01M015 4      2009 All Students              39               655           4
## #  with 28,468 more rows, and 9 more variables: Level 1 % <dbl>,
## #   Level 2 # <dbl>, Level 2 % <dbl>, Level 3 # <dbl>, Level 3 % <dbl>,
## #   Level 4 # <dbl>, Level 4 % <dbl>, Level 3+4 # <dbl>, Level 3+4 % <dbl>
## 
## $sat_scores
## # A tibble: 478 x 6
##    DBN    `SCHOOL NAME`      `Num of SAT Tes `SAT Critical Re `SAT Math Avg. 
##    <chr>  <chr>              <chr>            <chr>             <chr>           
##  1 01M292 HENRY STREET SCHO 29               355               404             
##  2 01M448 UNIVERSITY NEIGHB 91               383               423             
##  3 01M450 EAST SIDE COMMUNI 70               377               402             
##  4 01M458 FORSYTH SATELLITE 7                414               401             
##  5 01M509 MARTA VALLE HIGH  44               390               433             
##  6 01M515 LOWER EAST SIDE P 112              332               557             
##  7 01M539 NEW EXPLORATIONS  159              522               574             
##  8 01M650 CASCADES HIGH SCH 18               417               418             
##  9 01M696 BARD HIGH SCHOOL  130              624               604             
## 10 02M047 47 THE AMERICAN S 16               395               400             
## #  with 468 more rows, and 1 more variable: SAT Writing Avg. Score <chr>
## 
## $school_attendance
## # A tibble: 35 x 3
##    District    `YTD % Attendance (Avg)` `YTD Enrollment(Avg)`
##    <chr>                          <dbl>                 <dbl>
##  1 DISTRICT 01                     91.2                 12367
##  2 DISTRICT 02                     89.0                 60823
##  3 DISTRICT 03                     89.3                 21962
##  4 DISTRICT 04                     91.1                 14252
##  5 DISTRICT 05                     89.1                 13170
##  6 DISTRICT 06                     91.3                 25733
##  7 DISTRICT 07                     86.8                 19717
##  8 DISTRICT 08                     87.2                 31625
##  9 DISTRICT 09                     89.3                 34518
## 10 DISTRICT 10                     88.9                 56757
## #  with 25 more rows
…
